<?xml version="1.0" encoding="utf-8"?>
<!-- Generator: Adobe Illustrator 18.0.0, SVG Export Plug-In . SVG Version: 6.00 Build 0)  -->
<!DOCTYPE svg PUBLIC "-//W3C//DTD SVG 1.1//EN" "http://www.w3.org/Graphics/SVG/1.1/DTD/svg11.dtd">
<svg version="1.1" id="Layer_1" xmlns="http://www.w3.org/2000/svg" xmlns:xlink="http://www.w3.org/1999/xlink" x="0px" y="0px"
	 viewBox="57 -13 180 180" enable-background="new 57 -13 180 180" xml:space="preserve">
<g>
	<path fill="#D9D9D9" d="M65.9,116c9.1,18.9,24.2,33.5,42.1,42.1l29.8-71.9L65.9,116z"/>
	<path fill="#404040" d="M176.8-7.9c-18.7-6.6-39.7-7-59.5,0L147,63.9L176.8-7.9z"/>
	<path fill="#404040" d="M62.1,47.2c-6.6,18.7-7,39.7,0,59.5L133.9,77L62.1,47.2z"/>
	<path fill="#FFFFFF" d="M160.1,77l71.9,29.8c6.6-18.7,7-39.7,0-59.5L160.1,77z"/>
	<path d="M108-4.1C89.1,5,74.5,20.1,65.9,38l71.9,29.8L108-4.1z"/>
	<path fill="#666666" d="M117.2,161.9c18.7,6.6,39.7,7,59.5,0L147,90.1L117.2,161.9z"/>
	<path fill="#404040" d="M186,158.1c18.9-9.1,33.5-24.2,42.1-42.1l-71.9-29.8L186,158.1z"/>
	<path fill="#D9D9D9" d="M228.1,38C219,19.1,203.9,4.5,186-4.1l-29.8,71.9L228.1,38z"/>
</g>
</svg>
