<?xml version="1.0" encoding="utf-8"?>
<!-- Generator: Adobe Illustrator 18.0.0, SVG Export Plug-In . SVG Version: 6.00 Build 0)  -->
<!DOCTYPE svg PUBLIC "-//W3C//DTD SVG 1.1//EN" "http://www.w3.org/Graphics/SVG/1.1/DTD/svg11.dtd">
<svg version="1.1" id="Layer_1" xmlns="http://www.w3.org/2000/svg" xmlns:xlink="http://www.w3.org/1999/xlink" x="0px" y="0px"
	 viewBox="204 0 180 180" enable-background="new 204 0 180 180" xml:space="preserve">
<g>
	<path fill="#8C8C8C" d="M212.9,129c9.1,18.9,24.2,33.5,42.1,42.1l29.8-71.9L212.9,129z"/>
	<path fill="#D9D9D9" d="M323.8,5.1c-18.7-6.6-39.7-7-59.5,0L294,76.9L323.8,5.1z"/>
	<path fill="#404040" d="M209.1,60.2c-6.6,18.7-7,39.7,0,59.5L280.9,90L209.1,60.2z"/>
	<path fill="#1A1A1A" d="M307.1,90l71.9,29.8c6.6-18.7,7-39.7,0-59.5L307.1,90z"/>
	<path fill="#1A1A1A" d="M255,8.9C236.1,18,221.5,33.1,212.9,51l71.9,29.8L255,8.9z"/>
	<path fill="#D9D9D9" d="M264.2,174.9c18.7,6.6,39.7,7,59.5,0L294,103.1L264.2,174.9z"/>
	<path fill="#8C8C8C" d="M333,171.1c18.9-9.1,33.5-24.2,42.1-42.1l-71.9-29.8L333,171.1z"/>
	<path fill="#D9D9D9" d="M375.1,51C366,32.1,350.9,17.5,333,8.9l-29.8,71.9L375.1,51z"/>
</g>
</svg>
