<?xml version="1.0" encoding="utf-8"?>
<!-- Generator: Adobe Illustrator 18.0.0, SVG Export Plug-In . SVG Version: 6.00 Build 0)  -->
<!DOCTYPE svg PUBLIC "-//W3C//DTD SVG 1.1//EN" "http://www.w3.org/Graphics/SVG/1.1/DTD/svg11.dtd">
<svg version="1.1" id="Layer_1" xmlns="http://www.w3.org/2000/svg" xmlns:xlink="http://www.w3.org/1999/xlink" x="0px" y="0px"
	 viewBox="0 0 30 30" enable-background="new 0 0 30 30" xml:space="preserve">
<path fill="#0084FF" d="M24.8,18l-2.3-0.1c0-0.3,0-1-0.3-1.6c0.6-0.9,0.7-2.4,0-3.1c0.5-1.4,0.2-3.8-3.1-3.8h-3.1
	c0.1-1,0.1-1.9-0.2-3.3c-0.3-1.8-1.7-2.7-2.8-2.7c-1.4,0-2.6,1.1-2.6,2.6C10.2,8.7,9,11.2,9,11.2h-3c-0.6,0-1,0.4-1,1v8.8
	c0,0.6,0.4,1,1,1h3.4c0.5,0.7,1.3,1.2,2.2,1.2h13c1.3,0,2.3-1.2,2.4-2.6C27.1,19.2,26.2,18.1,24.8,18z M7.1,13.2H9v6.8H7.1V13.2z
	 M19.8,19.6l4.9,0.3c0.8,0.1,0.7,1.3-0.1,1.3H11.7c-0.4,0-0.7-0.3-0.7-0.7v-8.9c0.3-0.7,1.2-3,1.3-5.8c0-0.5,0.3-0.6,0.6-0.6
	c0.4,0,0.8,0.4,0.9,1c0.4,2.1,0,3.8,0,3.8l-0.2,1.1H19c1.3,0,1.4,1.5,0.9,2.4c1,0.8,0.8,2.4-0.1,3.1C20.4,17.5,20.7,18.6,19.8,19.6z
	"/>
</svg>
