<?xml version="1.0" encoding="utf-8"?>
<!-- Generator: Adobe Illustrator 18.0.0, SVG Export Plug-In . SVG Version: 6.00 Build 0)  -->
<!DOCTYPE svg PUBLIC "-//W3C//DTD SVG 1.1//EN" "http://www.w3.org/Graphics/SVG/1.1/DTD/svg11.dtd">
<svg version="1.1" id="Layer_1" xmlns="http://www.w3.org/2000/svg" xmlns:xlink="http://www.w3.org/1999/xlink" x="0px" y="0px"
	 viewBox="0 0 30 30" enable-background="new 0 0 30 30" xml:space="preserve">
<g>
	<g>
		<path d="M18,20H8c-1.7,0-3-1.3-3-3V9c0-1.7,1.3-3,3-3h10c0.8,0,1.6,0.3,2.1,0.9l4,4c1.2,1.2,1.2,3.1,0,4.2l-4,4
			C19.6,19.7,18.8,20,18,20z M8,8C7.4,8,7,8.5,7,9v8c0,0.6,0.5,1,1,1h10c0.3,0,0.5-0.1,0.7-0.3l4-4c0.4-0.4,0.4-1,0-1.4l-4-4
			C18.5,8.1,18.3,8,18,8H8z"/>
	</g>
	<circle cx="19" cy="13" r="1.5"/>
</g>
</svg>
